mc20_13TeV.412043.aMcAtNloPythia8EvtGen_A14NNPDF31_SM4topsNLO.deriv.DAOD_PHYSLITE.e7101_a907_r14859_p5855
## missing mc20_13TeV.412043.aMcAtNloPythia8EvtGen_A14NNPDF31_SM4topsNLO.deriv.DAOD_PHYS.e7101_a907_r14860_p5855
mc20_13TeV.412043.aMcAtNloPythia8EvtGen_A14NNPDF31_SM4topsNLO.deriv.DAOD_PHYSLITE.e7101_a907_r14861_p5855

## Missing PHYSLITE
## mc20_13TeV.412044.aMcAtNloHerwig7EvtGen_H7UE_SM4topsNLO.deriv.DAOD_PHYS.e7102_a907_r14859_p5855
## mc20_13TeV.412044.aMcAtNloHerwig7EvtGen_H7UE_SM4topsNLO.deriv.DAOD_PHYS.e7102_a907_r14860_p5855
## mc20_13TeV.412044.aMcAtNloHerwig7EvtGen_H7UE_SM4topsNLO.deriv.DAOD_PHYS.e7102_a907_r14861_p5855

## Missing PHYSLITE
## mc20_13TeV.500326.MGPy8EG_A14NNPDF31_SM4topsLOInclusive.deriv.DAOD_PHYS.e8092_a907_r14859_p5855
## mc20_13TeV.500326.MGPy8EG_A14NNPDF31_SM4topsLOInclusive.deriv.DAOD_PHYS.e8092_a907_r14860_p5855
mc20_13TeV.500326.MGPy8EG_A14NNPDF31_SM4topsLOInclusive.deriv.DAOD_PHYSLITE.e8092_a907_r14861_p5855